# Blender v2.78 (sub 0) OBJ File: 'Comma.blend'
# www.blender.org
o Cube
v 0.341092 -0.186310 0.644243
v -0.320854 -0.186310 0.997935
v -0.601369 -0.186310 0.794619
v -0.076064 -0.186310 0.494070
v 0.341092 0.206543 0.644243
v -0.320854 0.206543 0.997935
v -0.601369 0.206543 0.794619
v -0.076064 0.206543 0.494070
v 0.522014 -0.186310 0.179296
v 0.104859 -0.186310 0.154005
v 0.522014 0.206543 0.179296
v 0.104859 0.206543 0.154005
vt 0.7756 0.8320
vt 0.5511 0.1726
vt 0.7756 0.0000
vt 0.5570 1.0000
vt 1.0000 0.1680
vt 1.0000 1.0000
vt 0.7756 0.8274
vt 0.7815 0.0000
vt 0.2756 1.0000
vt 0.0000 1.0000
vt 0.0000 1.0000
vt 0.2756 0.0000
vt 0.2756 0.1680
vt 0.0000 0.1680
vt 0.5511 0.1686
vt 0.5511 0.9960
vt 0.2756 0.9960
vt 0.7756 0.0000
vt 0.0000 0.0000
vt 0.2756 0.1686
vt 0.5511 0.0000
vt 0.5511 0.1686
vt 0.2756 0.1686
vt 0.2756 0.0000
vt 1.0000 1.0000
vt 0.7756 0.8274
vt 0.2756 1.0000
vt 0.5511 0.1726
vn 0.0000 -1.0000 -0.0000
vn 0.0000 1.0000 0.0000
vn 0.9319 0.0000 0.3626
vn -0.5869 0.0000 0.8097
vn 0.4713 0.0000 0.8820
vn -0.4966 0.0000 -0.8680
vn 0.0605 0.0000 -0.9982
vn -0.8828 0.0000 -0.4697
s off
f 2/1/1 4/2/1 1/3/1
f 2/1/1 3/4/1 4/2/1
f 6/5/2 5/6/2 8/7/2
f 6/5/2 8/7/2 7/8/2
f 1/9/3 11/10/3 5/11/3
f 3/12/4 2/13/4 6/14/4
f 2/13/5 1/9/5 5/11/5
f 4/15/6 3/16/6 7/17/6
f 4/2/1 9/18/1 1/3/1
f 3/12/4 6/14/4 7/19/4
f 2/13/5 5/11/5 6/14/5
f 4/15/6 7/17/6 8/20/6
f 9/21/7 10/22/7 12/23/7
f 9/21/7 12/23/7 11/24/7
f 8/7/2 11/25/2 12/26/2
f 8/20/8 10/22/8 4/15/8
f 1/9/3 9/27/3 11/10/3
f 4/2/1 10/28/1 9/18/1
f 8/7/2 5/6/2 11/25/2
f 8/20/8 12/23/8 10/22/8
