# Blender v2.78 (sub 0) OBJ File: 'N.blend'
# www.blender.org
o Cube
v 1.000000 0.499545 -1.000000
v 1.000000 0.499545 1.000000
v -1.000000 0.499545 1.000000
v -1.000000 0.499545 -1.000000
v 1.000000 0.499545 -1.000000
v -0.500000 0.499545 0.014506
v -0.500000 0.499545 -1.000000
v -0.500000 0.499545 1.000000
v 0.500000 0.499545 -1.000000
v 0.500000 0.499545 1.000000
v 1.000000 0.499545 1.000000
v 0.500000 0.499545 0.123251
v -1.000000 0.499545 1.000000
v -1.000000 0.499545 -1.000000
v -0.500000 0.499545 0.014506
v -0.500000 0.499545 -1.000000
v -0.500000 0.499545 1.000000
v 0.500000 0.499545 -1.000000
v 0.500000 0.499545 1.000000
v 0.500000 0.499545 0.123251
v 1.000000 -0.500464 -1.000000
v 1.000000 -0.500464 1.000000
v -1.000000 -0.500464 1.000000
v -1.000000 -0.500464 -1.000000
v -0.500000 -0.500464 0.014506
v -0.500000 -0.500464 -1.000000
v -0.500000 -0.500464 1.000000
v 0.500000 -0.500464 -1.000000
v 0.500000 -0.500464 1.000000
v 0.500000 -0.500464 0.123251
vt 0.4444 0.8889
vt 0.3333 0.8889
vt 0.3333 0.6699
vt 0.3333 0.4444
vt 0.1111 0.8889
vt 0.1111 0.4444
vt 0.1111 0.6941
vt 0.0000 0.4444
vt 0.6667 0.6667
vt 0.8889 0.7778
vt 0.6667 0.7778
vt 1.0000 0.0000
vt 0.8889 0.2222
vt 0.8889 0.0000
vt 0.9968 0.7778
vt 0.8857 1.0000
vt 0.8857 0.7778
vt 0.6667 0.4444
vt 0.8889 0.6667
vt 0.0000 0.0000
vt 0.0000 0.0000
vt 0.0000 0.0000
vt 0.0000 0.0000
vt 0.0000 0.0000
vt 0.0000 0.0000
vt 0.0000 0.0000
vt 0.0000 0.0000
vt 0.0000 0.0000
vt 0.0000 0.0000
vt 0.0000 0.0000
vt 0.0000 0.0000
vt 0.0000 0.0000
vt 0.0000 0.0000
vt 0.0000 0.0000
vt 0.0000 0.0000
vt 0.0000 0.0000
vt 0.0000 0.0000
vt 0.0000 0.0000
vt 0.0000 0.0000
vt 1.0000 0.2222
vt 0.8889 0.4444
vt 0.8889 0.2222
vt 0.6667 1.0000
vt 0.8857 0.7778
vt 0.8857 1.0000
vt 0.6667 0.0000
vt 0.8889 0.4444
vt 0.6667 0.4444
vt 0.4444 0.4444
vt 0.6667 0.6941
vt 0.4444 0.6941
vt 0.2190 0.1111
vt 0.0000 0.0000
vt 0.4444 0.0000
vt 0.4444 0.1111
vt 0.0000 0.3333
vt 0.0000 0.4444
vt 0.1948 0.3333
vt 0.4444 0.4444
vt 0.0000 0.1111
vt 0.4444 0.3333
vt 0.6667 0.9437
vt 0.4444 0.9437
vt 0.4444 0.0000
vt 0.6667 0.4444
vt 0.4444 0.4444
vt 0.4444 0.4444
vt 0.0000 0.8889
vt 1.0000 0.2222
vt 0.9968 1.0000
vt 0.8889 0.4444
vt 1.0000 0.4444
vt 0.6667 0.7778
vt 0.8889 0.0000
vt 0.6667 0.4444
vt 0.6667 0.0000
vn 0.0000 1.0000 0.0000
vn 0.0000 0.0000 1.0000
vn 0.0000 0.0000 -1.0000
vn -0.7019 0.0000 0.7123
vn 1.0000 0.0000 0.0000
vn -1.0000 0.0000 -0.0000
vn 0.0000 -1.0000 0.0000
vn 0.7469 0.0000 -0.6649
s off
f 3/1/1 8/2/1 6/3/1
f 7/4/1 6/3/1 10/5/1
f 9/6/1 12/7/1 1/8/1
f 7/4/1 10/5/1 12/7/1
f 19/9/2 22/10/2 11/11/2
f 16/12/3 24/13/3 14/14/3
f 13/15/2 27/16/2 17/17/2
f 15/18/4 29/19/4 19/9/4
f 3/20/2 14/21/2 13/22/2
f 2/23/2 19/24/2 11/25/2
f 1/26/2 11/25/2 5/27/2
f 7/28/2 20/29/2 16/30/2
f 10/31/2 15/32/2 19/24/2
f 12/33/2 18/34/2 20/29/2
f 4/35/2 16/30/2 14/21/2
f 6/36/2 17/37/2 15/32/2
f 8/38/2 13/22/2 17/37/2
f 9/39/2 5/27/2 18/34/2
f 5/40/3 28/41/3 18/42/3
f 17/43/5 25/44/5 15/45/5
f 11/46/5 21/47/5 5/48/5
f 18/49/6 30/50/6 20/51/6
f 25/52/7 23/53/7 24/54/7
f 26/55/7 29/56/7 25/52/7
f 22/57/7 30/58/7 21/59/7
f 26/55/7 30/58/7 29/56/7
f 24/54/7 26/55/7 25/52/7
f 25/52/7 27/60/7 23/53/7
f 28/61/7 21/59/7 30/58/7
f 22/57/7 29/56/7 30/58/7
f 20/51/8 26/62/8 16/63/8
f 14/64/6 23/65/6 13/66/6
f 6/3/1 7/4/1 4/67/1
f 4/67/1 3/1/1 6/3/1
f 2/68/1 1/8/1 12/7/1
f 12/7/1 10/5/1 2/68/1
f 19/9/2 29/19/2 22/10/2
f 16/12/3 26/69/3 24/13/3
f 13/15/2 23/70/2 27/16/2
f 15/18/4 25/71/4 29/19/4
f 3/20/2 4/35/2 14/21/2
f 2/23/2 10/31/2 19/24/2
f 1/26/2 2/23/2 11/25/2
f 7/28/2 12/33/2 20/29/2
f 10/31/2 6/36/2 15/32/2
f 12/33/2 9/39/2 18/34/2
f 4/35/2 7/28/2 16/30/2
f 6/36/2 8/38/2 17/37/2
f 8/38/2 3/20/2 13/22/2
f 9/39/2 1/26/2 5/27/2
f 5/40/3 21/72/3 28/41/3
f 17/43/5 27/73/5 25/44/5
f 11/46/5 22/74/5 21/47/5
f 18/49/6 28/75/6 30/50/6
f 20/51/8 30/50/8 26/62/8
f 14/64/6 24/76/6 23/65/6
